<?xml version="1.0" encoding="UTF-8"?>
<svg xmlns:rdf="http://www.w3.org/1999/02/22-rdf-syntax-ns#" xmlns="http://www.w3.org/2000/svg" xmlns:cc="http://creativecommons.org/ns#" xmlns:xlink="http://www.w3.org/1999/xlink" xmlns:dc="http://purl.org/dc/elements/1.1/" xmlns:svg="http://www.w3.org/2000/svg" xmlns:inkscape="http://www.inkscape.org/namespaces/inkscape" xmlns:sodipodi="http://sodipodi.sourceforge.net/DTD/sodipodi-0.dtd" xmlns:ns1="http://sozi.baierouge.fr" id="svg2" viewBox="0 0 3000 3000" version="1.1">
  <defs id="defs4">
    <filter id="alpha" height="100%" width="100%" y="0%" x="0%" filterUnits="objectBoundingBox">
      <feColorMatrix id="feColorMatrix7" type="matrix" values="0 0 0 0 1 0 0 0 0 1 0 0 0 0 1 0 0 0 1 0" in="SourceGraphic"/>
    </filter>
    <mask id="mask0">
      <g id="g11" filter="url(#alpha)">
        <use id="use13" xlink:href="#image11"/>
      </g>
    </mask>
    <clipPath id="clip1">
      <rect id="rect16" width="3e3" height="3e3"/>
    </clipPath>
    <g id="surface10" clip-path="url(#clip1)">
      <path id="path19" stroke-linejoin="round" d="m42.266 827.92c-0.414 9.57 4.524 17.45 7.25 22.55 3.276 6.13 13.726 13.02 19.61 18.08-2.674 7.23-6.256 11.75-8.246 13.87-11.628-7.19-21.574-20.05-21.76-30.28-0.142-7.78-1.294-17.26 3.146-24.22zm0 0" transform="matrix(11.719 0 0 11.719 0 -9332.4)" stroke="#a30000" stroke-linecap="round" stroke-width="2.078" fill="#a30000"/>
    </g>
    <mask id="mask1">
      <g id="g23" filter="url(#alpha)">
        <use id="use25" xlink:href="#image18"/>
      </g>
    </mask>
    <clipPath id="clip2">
      <rect id="rect28" width="3e3" height="3e3"/>
    </clipPath>
    <g id="surface17" clip-path="url(#clip2)">
      <path id="path31" stroke-linejoin="round" d="m215.19 827.92c0.41 9.57-4.53 17.45-7.25 22.55-3.28 6.13-13.73 13.02-19.61 18.08 2.67 7.23 6.25 11.75 8.24 13.87 11.63-7.19 21.58-20.05 21.76-30.28 0.14-7.78 1.3-17.26-3.14-24.22zm0 0" transform="matrix(11.719 0 0 11.719 0 -9332.4)" stroke="#a30000" stroke-linecap="round" stroke-width="2.078" fill="#a30000"/>
    </g>
  </defs>
  <rect id="rect34" height="3e3" width="3e3" y="0" x="0" fill="#eeffa8"/>
  <g id="g3110" transform="translate(0,-4.4063)">
    <path id="path36" fill="#c00" d="m986.04 1795.7c-103.34-40-177.42-145.2-203.04-288.2-10.078-56.391-9.2578-151.64 1.8516-214.29 37.781-213.05 173.44-388.15 332.16-428.74 62.625-16.031 120-10.336 177.75 17.625 85.477 41.367 149.2 131.04 176.37 248.18 12.469 53.742 18.492 132.52 14.508 147.35-2.6015 41.812-3.1172 45.141-7.8281 74.039 0.2109 40.055-31.102 142.8-62.695 205.69-64.969 129.38-171.63 224.46-279.21 248.91-45.094 10.242-107.55 5.8594-149.86-10.5z"/>
    <path id="path38" fill="#fff" d="m1520.9 2457.6c-502.69 0-910.31 244.27-915.91 546.77h1832.2c-5.5781-302.51-413.58-546.77-916.24-546.77z"/>
    <path id="path40" d="m1813.5 897.94c14.133 1.2188 28.195 3.9609 42.844 7.7109 148.59 37.992 275.55 201.91 310.92 401.37 10.383 58.641 11.273 147.89 1.8281 200.67-23.976 133.95-93.328 232.1-190.05 269.53-39.609 15.328-98.062 19.476-140.27 9.8906-100.69-22.875-200.65-111.8-261.47-232.92-29.578-58.875-58.805-155.11-58.594-192.61-4.4063-27.047-4.8984-30.07-7.3359-69.211-3.7266-13.898 1.8984-87.75 13.547-138.07 25.453-109.66 85.148-193.43 165.16-232.17 40.547-19.641 81.047-27.773 123.42-24.188z"/>
    <path id="path42" fill="#c00" d="m1435.5 433.59c-191.91 3.1172-378.8 60.586-526.97 163.34-211.9 146.93-352.12 372.73-411.26 663.21-2.7188 13.359-6.1875 31.734-8.0625 40.641-1.875 8.9062-5.7188 31.594-8.0625 50.531-2.3438 18.961-6.3516 50.273-9.1406 69.211-6.5625 44.484-6.6094 206.84 0 247.2 20.203 123.49 42.117 213.66 88.617 364.76 14.133 45.914 17.414 56.93 24.891 84.961 2.0859 7.8047 9.6562 35.156 16.5 60.797 44.016 164.95 47.859 278.65 13.898 386.34-24.867 78.844-64.172 139.27-141.73 216.42-55.57 55.453-118.34 139.12-159.28 223.41h374.25c9.7734-22.594 17.602-46.219 26.367-63.727 56.18-112.1 113.13-190.88 193.73-268.08 106.08-101.62 225.54-162.59 368.04-188.23 39.141-7.0547 161.62-8.2969 200.32-1.8281 210.96 35.226 391.27 147.75 535.41 333.98 42.516 54.938 80.789 119.58 115.34 187.88h787.73c-26.555-57.562-71.719-129.66-126.23-207.28-29.93-42.633-69.656-106.95-91.289-132.56-68.719-81.445-126.59-120.8-168.21-175.9-86.508-79.945-76.219-96.539-74.227-208.99 36-179.16 46.289-513.47 36-782.72 3.7969-78.609-0.4922-119.48-4.5-161.02-14.227-146.77-42.07-234.87-99.609-349.73-45.586-90.961-102.96-169.41-178.36-244.62-84.328-84.141-166.08-142.57-275.74-196.66-133.62-65.906-260.79-99.375-416.02-109.5-27.539-1.7812-54.984-2.2734-82.406-1.8281zm-256.3 464.35c42.375-3.5859 82.875 4.5469 123.42 24.188 79.922 38.672 139.45 122.51 164.79 231.8 17.203 85.758 11.25 207.26 4.4063 227.79-9.1875 69.914-48.984 170.2-93.398 235.48-60.562 89.039-145.59 152.84-226.66 169.92-72.328 15.258-140.2 0.3281-198.49-43.57-87.75-66.117-136.2-184.27-136.24-331.43-0.0234-238.97 139.5-460.57 318.98-506.46 14.648-3.75 29.086-6.4922 43.195-7.7109z"/>
    <path id="path44" fill="#b00000" d="m1521.2 567.63s-51.422 1268.6-19.031 1801.8c178.76 29.836 260.58 70.336 438.7 215.7 93.234 76.055 266.2 272.65 332.91 419.32h502.43c-46.8-72.3-139.5-212-161.8-238.4-28.476-33.727-67.008-78.984-85.336-100.71-58.219-69-145.27-167.18-180.54-213.87-37.336-36.891-33.586-62.859-32.226-112.43 3.3515-132.66 16.312-651.63 26.742-868.29 3.211-66.609 3.3985-93.703 0-128.91-12.047-124.36-35.836-210.28-84.609-307.62-38.602-77.086-86.977-143.53-150.87-207.28-71.461-71.297-140.72-120.8-233.65-166.62-113.2-55.828-352.66-92.648-352.66-92.648z"/>
    <path id="path46" d="m1512.8 2841.7-187.66-436.59-0.1172-8.3672 342.33 0.7031 0.1172 8.3672-150.68 435.66c-0.8906 2.5547-2.9765 2.5547-3.9844 0.2344z"/>
    <path id="path48" fill="#ec0" d="m1427.1 1764.9-13.922 14.812c-27.703 29.344-87.352 49.359-179.11 59.906-100.76 11.602-228.89 5.3204-290.3-14.18-30.352-9.6329-38.578-7.9922-45.844 9.4921-22.898 55.219 24.984 159.73 137.55 300.3 71.391 89.156 177.52 196.34 243.94 246.35 25.852 19.477 57.375 34.852 86.766 42.305 23.906 6.0703 165.52 4.875 198.96-1.6406 11.156-2.1797 31.922-6.1172 46.102-8.8829 77.086-14.883 142.05-52.219 255.87-146.79 102.8-85.43 228.87-226.08 262.55-292.95 24.633-48.891 34.805-122.58 20.016-145.15-8.4844-12.938-12.047-13.148-44.578-2.789-31.547 10.031-139.05 20.25-211.9 20.25-30.164 0-78.844-2.8125-108.3-6.3282-85.758-10.195-135.09-27.773-164.02-58.5l-15.188-16.219zm36.867 32.414c22.336 0 34.852 29.086 26.203 61.172-14.812 55.031-50.695 81.656-72.562 53.836-23.977-30.469 10.078-115.01 46.359-115.01zm84.844 0c24.914 0 54.844 47.391 54.844 86.766 0 33.938-25.781 49.57-50.156 30.398-20.086-15.797-37.758-62.555-33.047-87.656 3.1875-17.062 15.188-29.508 28.359-29.508z"/>
    <path id="path50" fill="#fff" d="m1143.1 1806.1c86.602-18.258 177.49-86.344 242.18-181.45 47.438-69.75 89.859-176.77 99.68-251.44-101.72-86.578-325.92-332.39-358.59-508.83-191.72 49.031-341.04 286.05-340.99 541.31 0.0469 157.2 51.914 283.24 145.64 353.86 62.273 46.922 134.84 62.836 212.09 46.547z"/>
    <path id="path52" fill="#b00000" d="m1344.7 1561.4c0 107.86-80.297 195.28-179.37 195.28-99.047 0-179.34-87.422-179.34-195.28s80.297-195.3 179.34-195.3c99.07 0 179.37 87.445 179.37 195.3z"/>
    <path id="path54" fill="#fff" d="m1886.1 1806.1c-86.602-18.258-177.49-86.344-242.18-181.45-47.438-69.75-89.859-176.77-99.68-251.44 101.72-86.578 325.92-332.39 358.59-508.83 191.72 49.031 341.04 286.05 340.99 541.31-0.047 157.2-51.914 283.24-145.64 353.86-62.274 46.922-134.84 62.836-212.09 46.547z"/>
    <path id="path56" fill="#b00000" d="m2061.5 1542.8c0 107.86-80.297 195.3-179.34 195.3-99.047 0-179.34-87.445-179.34-195.3s80.297-195.28 179.34-195.28c99.047 0 179.34 87.422 179.34 195.28z"/>
    <path id="path58" fill="#fff" d="m1302.7 1485c0 47.25-35.203 85.57-78.609 85.57-43.383 0-78.586-38.32-78.586-85.57s35.203-85.57 78.586-85.57c43.406 0 78.609 38.32 78.609 85.57z"/>
    <path id="path60" fill="#fff" d="m2022.5 1465c0 47.25-35.18 85.57-78.586 85.57s-78.586-38.32-78.586-85.57c0-47.273 35.18-85.57 78.586-85.57s78.586 38.297 78.586 85.57z"/>
    <path id="path62" stroke-linejoin="round" d="m764.46 1064.2c-421.92-181.8-401.51-627.86-182.18-903.96-9.47 442.53 107.02 468.33 318.24 620.18-39.66 184.15-136.06 283.78-136.06 283.78zm0 0" stroke="#c00" stroke-linecap="round" stroke-width="30.095" fill="#c00"/>
    <use id="use64" xlink:href="#surface10" mask="url(#mask0)" height="3000" width="3000" y="0" x="0"/>
    <path id="path66" stroke-linejoin="round" d="m561.98 1735.5c-22.5 19.805-48.703 33.539-78.352 37.055-96.75 11.391-187.29-81.633-202.12-207.59-14.859-125.93 21.633-486.33 94.055-697.41 19.664 186.47 112.34 452.27 138.66 466.08 0.0937 5.039-0.25781 10.289-0.14063 15.305 1.2422 51.164 4.2891 101.48 9.0703 150.91 4.7812 49.406 11.25 97.945 19.477 145.31 5.3672 30.867 12.562 60.422 19.359 90.328zm0 0" stroke="#c00" stroke-linecap="round" stroke-width="36.562" fill="#c00"/>
    <path id="path68" d="m418.1 1558.1c4.2891 30.75 26.344 37.453 38.859 26.367 21.633-19.219 22.523-72.867 8.25-109.2-20.109-51.234-68.039-370.5-92.602-338.93-31.617 40.594-23.039 437.55 3.375 495.82 3.5156 7.7578 7.4297 14.977 11.672 21.539" stroke="#a30000" stroke-linecap="round" stroke-width="36.562" fill="none"/>
    <path id="path70" stroke-linejoin="round" d="m2252.6 1064.2c421.9-181.83 401.48-627.89 182.16-903.98 9.4687 442.52-107.02 468.33-318.21 620.18 39.656 184.15 136.05 283.8 136.05 283.8zm0 0" stroke="#c00" stroke-linecap="round" stroke-width="30.095" fill="#c00"/>
    <use id="use72" xlink:href="#surface17" mask="url(#mask1)" height="3000" width="3000" y="0" x="0"/>
    <path id="path74" d="m1476 966.66-374-460.04c-2.1797-2.6484-2.7188-5.9766-0.2813-8.3672 319.29-135.45 471.96-143.79 779.58 24.141 2.6016 2.25 2.5782 5.8359 0.2813 8.3672l-396.54 435.63c-2.2969 2.5312-6.4687 2.5078-9.0469 0.25781z"/>
    <path id="path76" d="m1946.4 723.26-324.49 456.96-7.1015 7.9453-87.094-81.961 7.1016-7.9218 410.34-375.73c2.4375-2.2266 2.9532-1.7109 1.2422 0.70312z"/>
    <path id="path78" d="m1083.4 723.26 324.49 456.96 7.1016 7.9453 87.094-81.961-7.1015-7.9218-410.37-375.73c-2.4141-2.2266-2.9531-1.7109-1.2188 0.70312z"/>
    <path id="path90" stroke-linejoin="round" d="m2434.5 1735.5c22.5 19.805 48.703 33.539 78.352 37.055 96.75 11.391 187.29-81.633 202.15-207.59 14.836-125.93-21.656-486.33-94.078-697.41-19.664 186.47-112.34 452.27-138.66 466.08-0.094 5.039 0.2578 10.289 0.1406 15.305-1.2422 51.164-4.289 101.48-9.0703 150.91-4.7812 49.406-11.226 97.945-19.453 145.31-5.3672 30.867-12.586 60.422-19.383 90.328zm0 0" stroke="#c00" stroke-linecap="round" stroke-width="36.562" fill="#c00"/>
    <path id="path92" d="m2578.4 1558.1c-4.3125 30.75-26.367 37.453-38.859 26.367-21.656-19.219-22.524-72.867-8.2735-109.2 20.133-51.234 68.039-370.5 92.602-338.93 31.617 40.594 23.062 437.55-3.3516 495.82-3.539 7.7578-7.4531 14.977-11.695 21.539" stroke="#a30000" stroke-linecap="round" stroke-width="36.562" fill="none"/>
  </g>
  <g id="g3147" stroke="#540000" fill="#540000" transform="translate(-7.5599 -1.5899)">
    <path id="path80" stroke-width="7.9622" transform="scale(.8)" d="m2816.9 2346.3c-6.8847 13.506-13.867 27.043-21.719 42.688-125.89 411.68-2.5117 814.78 345.12 921.09 231.91 70.911 454.94-23.502 615.12-216.47v-208.59c-129.6 205.76-322.76 406.33-584.91 326.16-358.13-109.51-317.52-585.04-282.12-843.03l-71.5-21.844z"/>
    <path id="path82" stroke-width="3.9747" transform="scale(.8)" d="m3428.2 2296c-24.826 0.1208-47.734 16.256-55.375 41.25l-432 1412.8h130l420.88-1376.4c9.4043-30.762-7.8926-63.315-38.625-72.719l-7.5-2.3125c-5.7678-1.7633-11.615-2.5904-17.344-2.5625z"/>
    <path id="path86" fill-rule="evenodd" stroke-width="8.9982" d="m2299.9 1884.1-119.62 23.719 196.5-322.71-41.672 359.62z"/>
    <path id="path88" fill-rule="evenodd" stroke-width="10.516" d="m2746.2 1886.2-111.59 38.391 220.05-393.05-38.133 446.2z"/>
  </g>
  <metadata>
    <rdf:RDF>
      <cc:Work>
        <dc:format>image/svg+xml</dc:format>
        <dc:type rdf:resource="http://purl.org/dc/dcmitype/StillImage"/>
        <cc:license rdf:resource="http://creativecommons.org/licenses/publicdomain/"/>
        <dc:publisher>
          <cc:Agent rdf:about="http://openclipart.org/">
            <dc:title>Openclipart</dc:title>
          </cc:Agent>
        </dc:publisher>
        <dc:title>devil penguin</dc:title>
        <dc:date>2013-05-23T01:58:23</dc:date>
        <dc:description>A penguin in an outfit reminds us of tux from Linux fame.</dc:description>
        <dc:source>https://openclipart.org/detail/178471/devil-by-bartm-178471</dc:source>
        <dc:creator>
          <cc:Agent>
            <dc:title>BartM</dc:title>
          </cc:Agent>
        </dc:creator>
        <dc:subject>
          <rdf:Bag>
            <rdf:li>animal</rdf:li>
            <rdf:li>color</rdf:li>
            <rdf:li>devil</rdf:li>
            <rdf:li>linux</rdf:li>
            <rdf:li>penguin</rdf:li>
            <rdf:li>pet</rdf:li>
            <rdf:li>tux</rdf:li>
          </rdf:Bag>
        </dc:subject>
      </cc:Work>
      <cc:License rdf:about="http://creativecommons.org/licenses/publicdomain/">
        <cc:permits rdf:resource="http://creativecommons.org/ns#Reproduction"/>
        <cc:permits rdf:resource="http://creativecommons.org/ns#Distribution"/>
        <cc:permits rdf:resource="http://creativecommons.org/ns#DerivativeWorks"/>
      </cc:License>
    </rdf:RDF>
  </metadata>
</svg>