<?xml version="1.0" encoding="UTF-8"?>
<svg xmlns:rdf="http://www.w3.org/1999/02/22-rdf-syntax-ns#" xmlns="http://www.w3.org/2000/svg" xmlns:cc="http://creativecommons.org/ns#" xmlns:dc="http://purl.org/dc/elements/1.1/" xmlns:svg="http://www.w3.org/2000/svg" xmlns:inkscape="http://www.inkscape.org/namespaces/inkscape" xmlns:sodipodi="http://sodipodi.sourceforge.net/DTD/sodipodi-0.dtd" xmlns:ns1="http://sozi.baierouge.fr" xmlns:xlink="http://www.w3.org/1999/xlink" id="svg2" viewBox="0 0 3000 3000" version="1.1">
  <rect id="rect5" height="3e3" width="3e3" y="0" x="0" fill="#35abc7"/>
  <g id="g3123" transform="translate(0,-4.4063)">
    <path id="path7" fill="#fff" d="m1520.9 2457.6c-502.69 0-910.31 244.27-915.91 546.77h1832.2c-5.5781-302.51-413.58-546.77-916.24-546.77z"/>
    <path id="path9" d="m1430.7 433.59c-191.91 3.1172-378.8 60.586-526.97 163.34-211.9 146.93-352.12 372.73-411.26 663.21-2.7188 13.359-6.1641 31.734-8.0625 40.641-1.875 8.9062-5.6953 31.594-8.0625 50.531-2.3438 18.961-6.3516 50.273-9.1406 69.211-6.5625 44.484-6.6094 206.84 0 247.2 20.203 123.49 42.141 213.66 88.617 364.76 14.133 45.914 17.414 56.93 24.914 84.961 2.0859 7.8047 9.6328 35.156 16.477 60.797 44.016 164.95 47.883 278.65 13.898 386.34-24.844 78.844-64.172 139.27-141.7 216.42-55.57 55.453-118.36 139.12-159.3 223.41h374.25c9.7734-22.594 17.602-46.219 26.367-63.727 56.18-112.08 113.16-190.88 193.73-268.08 106.1-101.62 225.54-162.59 368.04-188.23 39.141-7.0547 161.65-8.2969 200.32-1.8281 210.98 35.226 391.29 147.75 535.41 333.98 42.516 54.938 80.789 119.58 115.36 187.88h787.71c-26.555-57.562-71.695-129.66-126.21-207.28-29.953-42.633-69.68-106.95-91.312-132.56-68.719-81.445-126.59-120.8-168.21-175.9-86.484-79.945-76.219-96.539-74.227-208.99 36.023-179.16 46.289-513.47 36.023-782.72 3.7735-78.609-0.4922-119.48-4.5234-161.02-14.227-146.77-42.07-234.87-99.609-349.73-45.586-90.961-102.94-169.41-178.36-244.62-84.328-84.141-166.08-142.57-275.74-196.66-133.59-65.906-260.79-99.375-416.02-109.5-27.539-1.7812-54.984-2.2734-82.406-1.8281z"/>
    <path id="path11" d="m1813.5 897.94c14.133 1.2188 28.195 3.9609 42.844 7.7109 148.59 37.992 275.55 201.91 310.92 401.37 10.383 58.641 11.273 147.89 1.8281 200.67-23.976 133.95-93.328 232.1-190.05 269.53-39.609 15.328-98.062 19.476-140.27 9.8906-100.69-22.875-200.65-111.8-261.47-232.92-29.578-58.875-58.805-155.11-58.594-192.61-4.4063-27.047-4.8984-30.07-7.3359-69.211-3.7266-13.898 1.8984-87.75 13.547-138.07 25.453-109.66 85.148-193.43 165.16-232.17 40.547-19.641 81.047-27.773 123.42-24.188z"/>
    <path id="path13" fill="#fff" d="m1179.2 897.94c42.375-3.5859 82.875 4.5469 123.42 24.188 79.922 38.672 139.45 122.51 164.79 231.8 17.203 85.758 11.25 207.26 4.4063 227.79-9.1875 69.914-48.984 170.2-93.398 235.48-60.562 89.039-145.59 152.84-226.66 169.92-72.328 15.258-140.2 0.3281-198.49-43.57-87.75-66.117-136.2-184.27-136.24-331.43-0.0234-238.97 139.5-460.57 318.98-506.46 14.648-3.75 29.086-6.4922 43.195-7.7109z"/>
    <path id="path15" fill="#333" d="m1521.2 567.63s-51.422 1268.6-19.031 1801.8c178.76 29.836 260.58 70.336 438.7 215.7 93.234 76.055 266.2 272.65 332.91 419.32h502.43c-46.8-72.3-139.5-212-161.8-238.4-28.476-33.727-67.008-78.984-85.336-100.71-58.219-69-145.27-167.18-180.54-213.87-37.336-36.891-33.586-62.859-32.226-112.43 3.3515-132.66 16.312-651.63 26.742-868.29 3.211-66.609 3.3985-93.703 0-128.91-12.047-124.36-35.836-210.28-84.609-307.62-38.602-77.086-86.977-143.53-150.87-207.28-71.461-71.297-140.72-120.8-233.65-166.62-113.2-55.828-352.66-92.648-352.66-92.648z"/>
    <path id="path17" fill="#fff" d="m1878.5 1786.7c-81.539-17.203-167.11-81.305-228.02-170.86-44.672-65.648-84.609-166.41-93.844-236.72-6.8907-20.648-12.984-142.92 4.289-229.17 25.5-109.92 85.617-194.41 165.98-233.32 54.375-26.297 108.38-31.664 167.34-16.57 416.88 90.492 431.16 973.97-15.75 886.64z"/>
    <path id="path19" fill="#ec0" d="m1417.3 1745.4-13.922 14.812c-27.68 29.344-87.352 49.359-179.09 59.906-100.78 11.578-228.91 5.3203-290.3-14.18-30.375-9.6563-38.602-7.9922-45.867 9.4922-22.898 55.195 24.984 159.73 137.55 300.3 71.391 89.156 177.54 196.31 243.94 246.35 25.852 19.477 57.375 34.852 86.766 42.305 23.906 6.0469 165.54 4.875 198.98-1.6406 11.133-2.1797 31.898-6.1406 46.102-8.8828 77.062-14.906 142.03-52.219 255.84-146.79 102.82-85.43 228.89-226.1 262.55-292.95 24.633-48.914 34.828-122.58 20.016-145.15-8.4844-12.961-12.024-13.148-44.578-2.7891-31.547 10.031-139.05 20.25-211.9 20.25-30.141 0-78.844-2.8125-108.28-6.3281-85.781-10.219-135.12-27.774-164.02-58.524l-15.211-16.195zm36.867 32.414c22.359 0 34.852 29.086 26.227 61.172-14.836 55.031-50.695 81.656-72.586 53.836-23.953-30.469 10.078-115.01 46.359-115.01zm84.867 0c24.891 0 54.844 47.367 54.844 86.766 0 33.938-25.781 49.57-50.156 30.398-20.086-15.797-37.781-62.578-33.07-87.656 3.2109-17.062 15.188-29.508 28.383-29.508z"/>
    <path id="path21" d="m1290.7 1433.6c0 100.97-75.188 182.81-167.91 182.81-92.742 0-167.91-81.844-167.91-182.81 0-100.99 75.164-182.84 167.91-182.84 92.719 0 167.91 81.844 167.91 182.84z"/>
    <path id="path23" fill="#fff" d="m1251.4 1362c0 44.25-32.953 80.109-73.57 80.109-40.641 0-73.594-35.859-73.594-80.109s32.953-80.109 73.594-80.109c40.617 0 73.57 35.859 73.57 80.109z"/>
    <path id="path25" d="m2042.7 1434.8c0 100.99-75.164 182.84-167.91 182.84-92.719 0-167.91-81.844-167.91-182.84 0-100.97 75.188-182.81 167.91-182.81 92.742 0 167.91 81.844 167.91 182.81z"/>
    <path id="path27" fill="#fff" d="m2006.2 1362c0 44.25-32.93 80.109-73.57 80.109-40.617 0-73.57-35.859-73.57-80.109s32.953-80.109 73.57-80.109c40.641 0 73.57 35.859 73.57 80.109z"/>
  </g>
  <path id="path29" fill="#d40000" d="m322.85 0 301.37 911.73c285.8-129.68 454.18-269.03 627.38-458.05l-624.08-453.68h-304.67z"/>
  <path id="path31" fill="#f00" d="m700.45 141.8v671.6c188.42-99.35 314.25-208.76 443.15-349.43z"/>
  <path id="path33" fill="#ff0" d="m594.42 132c100.22 64.453 84.68 73.477 53.859-35.812-30.02-106.48-30.23-107.56-64.57-2.18-35.23 108.14-49.31 97.242 53.44 36.332 100.12-59.348 101.15-59.863-17.7-57.52-121.99 2.414-115.17-13.359-20.83 58.29 91.922 69.797 92.766 70.547 53.625-33.375-40.15-106.64-21.84-105.52-66.3-0.329-43.32 102.49-43.83 103.47 50.86 36.914 97.17-68.32 101.65-51.843-20.18-58.476-118.69-6.469-119.84-6.61-22.2 56.156z"/>
  <path id="path35" fill="#ff0" d="m567.42 439.69c61.664 39.656 52.102 45.211 33.141-22.055-18.492-65.555-18.609-66.211-39.75-1.3359-21.68 66.539-30.352 59.836 32.906 22.359 61.617-36.539 62.25-36.844-10.898-35.414-75.094 1.4766-70.898-8.2266-12.82 35.883 56.578 42.961 57.094 43.43 33-20.531-24.727-65.648-13.453-64.945-40.805-0.21094-26.672 63.094-26.977 63.68 31.289 22.711 59.812-42.047 62.555-31.898-12.398-36-73.055-3.9609-73.781-4.0547-13.664 34.594z"/>
  <path id="path37" fill="#ff0" d="m967.41 509.65c94.711 60.891 80.016 69.445 50.883-33.844-28.383-100.64-28.57-101.65-61.031-2.0625-33.281 102.19-46.594 91.898 50.508 34.336 94.6-56.09 95.6-56.58-16.77-54.35-115.29 2.27-108.82-12.64-19.66 55.07 86.859 65.977 87.656 66.68 50.672-31.547-37.945-100.78-20.648-99.703-62.672-0.30469-40.945 96.867-41.414 97.781 48.07 34.875 91.828-64.547 96.047-48.984-19.055-55.266-112.17-6.0938-113.27-6.2344-20.977 53.086z"/>
  <path id="path39" fill="#00f" d="m778.45 303.38c72.68 46.734 61.406 53.273 39.047-25.992-21.773-77.25-21.938-78.023-46.828-1.5938-25.547 78.445-35.766 70.547 38.766 26.367 72.633-43.055 73.383-43.43-12.844-41.719-88.5 1.7344-83.531-9.7031-15.117 42.281 66.68 50.625 67.289 51.164 38.906-24.211-29.133-77.367-15.844-76.523-48.094-0.23437-31.43 74.344-31.805 75.047 36.891 26.766 70.477-49.547 73.711-37.617-14.625-42.422-86.109-4.6875-86.93-4.7812-16.102 40.758z"/>
  <path id="path41" fill="#00f" d="m686.48 580.5c50.672 32.578 42.82 37.148 27.234-18.094-15.188-53.859-15.281-54.398-32.648-1.125-17.812 54.68-24.938 49.172 27.023 18.375 50.625-30 51.141-30.258-8.9531-29.086-61.688 1.2188-58.242-6.75-10.523 29.484 46.477 35.297 46.898 35.672 27.117-16.875-20.32-53.93-11.062-53.344-33.539-0.16407-21.914 51.82-22.172 52.312 25.711 18.656 49.125-34.547 51.398-26.203-10.195-29.578-60-3.2578-60.586-3.3281-11.227 28.406z"/>
  <path id="path43" fill="#00f" d="m417.45 0c4.2956 3.3748 10.954 7.8276 19.775 13.55-5.8283 16.618-9.5892 25.382-8.675 27.8 0.0981 6.6404 9.0123 1.2443 30.35-13.65 15.355 10.321 23.185 16.359 25.925 16.25 6.8257 1.9388 4.054-7.5922-4.65-31 8.7-5.8519 15.29-10.037 19.42-12.95h-82.15z"/>
  <path id="path45" fill="#00f" d="m511.59 278.58c39.68 25.5 33.516 29.062 21.328-14.18-11.906-42.141-11.977-42.562-25.57-0.86719-13.945 42.797-19.5 38.484 21.164 14.367 39.609-23.484 40.031-23.672-7.0078-22.758-48.281 0.96094-45.586-5.2734-8.25 23.062 36.375 27.633 36.703 27.938 21.234-13.195-15.914-42.211-8.6484-41.766-26.25-0.14062-17.156 40.57-17.344 40.969 20.133 14.602 38.438-27.023 40.219-20.508-7.9922-23.133-46.969-2.5547-47.438-2.625-8.7891 22.242z"/>
  <path id="path47" fill="#ff0" d="m724.17 756.7c50.672 32.578 42.82 37.148 27.234-18.094-15.188-53.859-15.305-54.398-32.648-1.1016-17.812 54.656-24.938 49.172 27.023 18.375 50.625-30.023 51.141-30.281-8.9531-29.086-61.688 1.1953-58.242-6.7734-10.547 29.461 46.477 35.297 46.922 35.672 27.117-16.875-20.297-53.93-11.039-53.344-33.516-0.16406-21.914 51.82-22.172 52.312 25.711 18.656 49.125-34.547 51.398-26.203-10.195-29.555-60.023-3.2812-60.609-3.3516-11.227 28.383z"/>
  <path id="path49" transform="scale(.8)" fill="#f00" d="m2448.6 2721l-280.4 1029h1378.2l185.2-679.4-1283-349.6z"/>
  <path id="path51" fill="#d40000" d="m2550.3 2390-166.25 610h399.8l138.6-508.6-372.15-101.4z"/>
  <path id="path53" fill="#fc0" d="m2402.4 2293.3-192.6 706.7h136.1l183.2-672.18-126.72-34.55z"/>
  <path id="path55" fill="#fc0" d="m2883.4 2830.3-34.513 126.71-1026.3-279.68 34.513-126.71z"/>
  <path id="path57" fill="#ffd428" d="m2841.9 2832.6-27.607 101.36-390.27-106.35 27.63-101.37z"/>
  <path id="path59" fill="#fc0" d="m2811.5 2487.2-1.734-1.0107 1.3054 1.6808zm-22.098 33.966-3.4457-0.6104 2.7671 1.6715 0.6836-1.0382zm15.355-38.004-324.72-194.58-22.758 35 317.98 190.56-31.049-41.576z"/>
  <path id="path61" fill="#fc0" d="m2900.2 2173.8c-12.059-40.664-121.6-44.108-244.74-7.6061-123.16 36.53-213.25 99.17-201.19 139.83 12.059 40.664 121.7 43.941 244.85 7.4387 123.14-36.525 213.14-99.003 201.08-139.67zm-58.588 21.783c6.9604 23.475-61.769 64.621-153.51 91.819-91.714 27.193-171.76 30.176-178.73 6.6784-6.9604-23.475 61.794-64.507 153.53-91.705 91.737-27.198 171.74-30.291 178.7-6.7929z"/>
  <path id="path63" fill="#fc0" d="m2166.3 1980.6c31.029-28.923 127.18 23.682 214.79 117.64 87.58 93.941 133.44 193.62 102.41 222.54-31.006 28.918-127.15-23.858-214.76-117.82-87.603-93.936-133.45-193.45-102.45-222.37zm39.461 48.51c-17.902 16.702 20.424 87.011 85.675 156.99 65.251 69.982 132.74 113.15 150.64 96.444 17.925-16.707-20.528-86.94-85.779-156.92-65.251-69.982-132.61-113.22-150.54-96.515z"/>
  <path id="path65" fill="#fc0" d="m2095.3 2294.2 2.0134-0.011-1.9847 0.7963zm1.7942 40.473 3.2919 1.2201-3.2312 0.038zm6.0663-40.521 378.55-2.9495 1.8499 41.708-370.7 2.8784 47.854-20.071z"/>
  <metadata>
    <rdf:RDF>
      <cc:Work>
        <dc:format>image/svg+xml</dc:format>
        <dc:type rdf:resource="http://purl.org/dc/dcmitype/StillImage"/>
        <cc:license rdf:resource="http://creativecommons.org/licenses/publicdomain/"/>
        <dc:publisher>
          <cc:Agent rdf:about="http://openclipart.org/">
            <dc:title>Openclipart</dc:title>
          </cc:Agent>
        </dc:publisher>
        <dc:title>happy birthday penguin</dc:title>
        <dc:date>2013-05-23T02:00:44</dc:date>
        <dc:description>A penguin in an outfit reminds us of tux from Linux fame.</dc:description>
        <dc:source>https://openclipart.org/detail/178478/happy-birthday-by-bartm-178478</dc:source>
        <dc:creator>
          <cc:Agent>
            <dc:title>BartM</dc:title>
          </cc:Agent>
        </dc:creator>
        <dc:subject>
          <rdf:Bag>
            <rdf:li>animal</rdf:li>
            <rdf:li>birthday</rdf:li>
            <rdf:li>color</rdf:li>
            <rdf:li>happy</rdf:li>
            <rdf:li>linux</rdf:li>
            <rdf:li>penguin</rdf:li>
            <rdf:li>pet</rdf:li>
            <rdf:li>tux</rdf:li>
          </rdf:Bag>
        </dc:subject>
      </cc:Work>
      <cc:License rdf:about="http://creativecommons.org/licenses/publicdomain/">
        <cc:permits rdf:resource="http://creativecommons.org/ns#Reproduction"/>
        <cc:permits rdf:resource="http://creativecommons.org/ns#Distribution"/>
        <cc:permits rdf:resource="http://creativecommons.org/ns#DerivativeWorks"/>
      </cc:License>
    </rdf:RDF>
  </metadata>
</svg>