<?xml version="1.0" encoding="UTF-8"?>
<svg xmlns:rdf="http://www.w3.org/1999/02/22-rdf-syntax-ns#" xmlns="http://www.w3.org/2000/svg" xmlns:cc="http://creativecommons.org/ns#" xmlns:dc="http://purl.org/dc/elements/1.1/" xmlns:svg="http://www.w3.org/2000/svg" xmlns:inkscape="http://www.inkscape.org/namespaces/inkscape" xmlns:sodipodi="http://sodipodi.sourceforge.net/DTD/sodipodi-0.dtd" xmlns:ns1="http://sozi.baierouge.fr" xmlns:xlink="http://www.w3.org/1999/xlink" id="svg2" viewBox="0 0 3000 3000" version="1.1">
  <rect id="rect5" height="3e3" width="3e3" y="0" x="0" fill="#00a887"/>
  <path id="path59" stroke="#000" stroke-width="11.719" fill="none" d="m1066.3-4859.5-22.594-637.03c0.023 0.047 0.047 0.07 0.07 0.1172 0.07 0.1171 0.1406 0.2343 0.1875 0.3515 0.2578 0.4688 0.5156 0.9141 0.7734 1.3828 0.9844 1.7813 1.9453 3.5625 2.9297 5.3438 3.6328 6.7265 7.2188 13.476 10.734 20.25 12.398 23.766 24.258 47.812 35.648 72.094 33.094 70.57 62.695 143.02 84.117 217.97 10.828 37.945 19.57 76.594 23.508 115.85 3.3516 33.516 3.4688 67.898-5.4843 100.38-7.6407 27.633-23.391 53.602-46.992 69.891-28.969 19.992-65.789 25.266-100.97 24.375-123.54-3.1641-250.36-24.305-355.59-89.109l-91.688-82.594z"/>
  <g id="g3097" transform="translate(0,-4.4063)">
    <path id="path7" fill-opacity=".96863" fill="#f8f8f8" d="m2503.6 1359.4h90.375v57.609h-90.375z"/>
    <path id="path9" fill-opacity=".96863" fill="#f8f8f8" d="m2344.1 1393.1h380.65v-132.82l228.94-132.84v-796.95h-838.55v796.95l228.96 132.84z"/>
    <path id="path11" fill-opacity=".96863" fill="#d40707" d="m2124.2 799.57v318.98l228.87 132.91v132.94h380.51v-132.94l228.87-132.91v-318.98h-27.094v0.72656h-787.36v-0.72656z"/>
    <path id="path13" fill-opacity=".96863" fill="#ab0000" d="m2720.5 1219.9v-319.22h200.32v201.87z"/>
    <path id="path15" fill-opacity=".96863" fill="#ab0000" d="m2720.7 904.22v-84.867h200.23v84.867h-175.2z"/>
    <path id="path17" d="m2347.5 1396.5h380.67v-132.84l228.94-132.82v-796.95h-838.55v796.95l228.94 132.82z" stroke-opacity=".96863" stroke="#fff" stroke-width="39.844" fill="none"/>
    <path id="path19" fill="#ccc" d="m2620.5 94.875h-1134v126.52h1134z"/>
    <path id="path21" fill="#ccc" d="m1631 103.92h-144.56v2878h144.56z"/>
    <path id="path23" fill="#b3b3b3" d="m1549.7 109.24h-49.688v2829.9h49.688z"/>
    <path id="path25" fill="#fff" d="m1520.9 2457.6c-502.69 0-910.31 244.27-915.91 546.77h1832.2c-5.5781-302.51-413.58-546.77-916.24-546.77z"/>
    <path id="path27" d="m1430.7 433.59c-191.91 3.1172-378.8 60.586-526.97 163.34-211.9 146.93-352.12 372.73-411.26 663.21-2.7188 13.359-6.1641 31.734-8.0625 40.641-1.875 8.9062-5.6953 31.594-8.0625 50.531-2.3438 18.961-6.3516 50.273-9.1406 69.211-6.5625 44.484-6.6094 206.84 0 247.2 20.203 123.49 42.141 213.66 88.617 364.76 14.133 45.914 17.414 56.93 24.914 84.961 2.0859 7.8047 9.6328 35.156 16.477 60.797 44.016 164.95 47.883 278.65 13.898 386.34-24.844 78.844-64.172 139.27-141.7 216.42-55.57 55.453-118.36 139.12-159.3 223.41h374.25c9.7734-22.594 17.602-46.219 26.367-63.727 56.18-112.08 113.16-190.88 193.73-268.08 106.1-101.62 225.54-162.59 368.04-188.23 39.141-7.0547 161.65-8.2969 200.32-1.8281 210.98 35.226 391.29 147.75 535.41 333.98 42.516 54.938 80.789 119.58 115.36 187.88h787.71c-26.555-57.562-71.695-129.66-126.21-207.28-29.953-42.633-69.68-106.95-91.312-132.56-68.719-81.445-126.59-120.8-168.21-175.9-86.484-79.945-76.219-96.539-74.227-208.99 36.023-179.16 46.289-513.47 36.023-782.72 3.7735-78.609-0.4922-119.48-4.5234-161.02-14.227-146.77-42.07-234.87-99.609-349.73-45.586-90.961-102.94-169.41-178.36-244.62-84.328-84.141-166.08-142.57-275.74-196.66-133.59-65.906-260.79-99.375-416.02-109.5-27.539-1.7812-54.984-2.2734-82.406-1.8281z"/>
    <path id="path29" d="m1813.5 897.94c14.133 1.2188 28.195 3.9609 42.844 7.7109 148.59 37.992 275.55 201.91 310.92 401.37 10.383 58.641 11.273 147.89 1.8281 200.67-23.976 133.95-93.328 232.1-190.05 269.53-39.609 15.328-98.062 19.476-140.27 9.8906-100.69-22.875-200.65-111.8-261.47-232.92-29.578-58.875-58.805-155.11-58.594-192.61-4.4063-27.047-4.8984-30.07-7.3359-69.211-3.7266-13.898 1.8984-87.75 13.547-138.07 25.453-109.66 85.148-193.43 165.16-232.17 40.547-19.641 81.047-27.773 123.42-24.188z"/>
    <path id="path31" fill="#fff" d="m1179.2 897.94c42.375-3.5859 82.875 4.5469 123.42 24.188 79.922 38.672 139.45 122.51 164.79 231.8 17.203 85.758 11.25 207.26 4.4063 227.79-9.1875 69.914-48.984 170.2-93.398 235.48-60.562 89.039-145.59 152.84-226.66 169.92-72.328 15.258-140.2 0.3281-198.49-43.57-87.75-66.117-136.2-184.27-136.24-331.43-0.0234-238.97 139.5-460.57 318.98-506.46 14.648-3.75 29.086-6.4922 43.195-7.7109z"/>
    <path id="path33" fill="#333" d="m1521.2 567.63s-51.422 1268.6-19.031 1801.8c178.76 29.836 260.58 70.336 438.7 215.7 93.234 76.055 266.2 272.65 332.91 419.32h502.43c-46.8-72.3-139.5-212-161.8-238.4-28.476-33.727-67.008-78.984-85.336-100.71-58.219-69-145.27-167.18-180.54-213.87-37.336-36.891-33.586-62.859-32.226-112.43 3.3515-132.66 16.312-651.63 26.742-868.29 3.211-66.609 3.3985-93.703 0-128.91-12.047-124.36-35.836-210.28-84.609-307.62-38.602-77.086-86.977-143.53-150.87-207.28-71.461-71.297-140.72-120.8-233.65-166.62-113.2-55.828-352.66-92.648-352.66-92.648z"/>
    <path id="path35" fill="#fff" d="m1878.5 1786.7c-81.539-17.203-167.11-81.305-228.02-170.86-44.672-65.648-84.609-166.41-93.844-236.72-6.8907-20.648-12.984-142.92 4.289-229.17 25.5-109.92 85.617-194.41 165.98-233.32 54.375-26.297 108.38-31.664 167.34-16.57 416.88 90.492 431.16 973.97-15.75 886.64z"/>
    <path id="path37" fill="#ec0" d="m1417.3 1745.4-13.922 14.812c-27.68 29.344-87.352 49.359-179.09 59.906-100.78 11.578-228.91 5.3203-290.3-14.18-30.375-9.6563-38.602-7.9922-45.867 9.4922-22.898 55.195 24.984 159.73 137.55 300.3 71.391 89.156 177.54 196.31 243.94 246.35 25.852 19.477 57.375 34.852 86.766 42.305 23.906 6.0469 165.54 4.875 198.98-1.6406 11.133-2.1797 31.898-6.1406 46.102-8.8828 77.062-14.906 142.03-52.219 255.84-146.79 102.82-85.43 228.89-226.1 262.55-292.95 24.633-48.914 34.828-122.58 20.016-145.15-8.4844-12.961-12.024-13.148-44.578-2.7891-31.547 10.031-139.05 20.25-211.9 20.25-30.141 0-78.844-2.8125-108.28-6.3281-85.781-10.219-135.12-27.774-164.02-58.524l-15.211-16.195zm36.867 32.414c22.359 0 34.852 29.086 26.227 61.172-14.836 55.031-50.695 81.656-72.586 53.836-23.953-30.469 10.078-115.01 46.359-115.01zm84.867 0c24.891 0 54.844 47.367 54.844 86.766 0 33.938-25.781 49.57-50.156 30.398-20.086-15.797-37.781-62.578-33.07-87.656 3.2109-17.062 15.188-29.508 28.383-29.508z"/>
    <path id="path39" d="m1290.7 1433.6c0 100.97-75.188 182.81-167.91 182.81-92.742 0-167.91-81.844-167.91-182.81 0-100.99 75.164-182.84 167.91-182.84 92.719 0 167.91 81.844 167.91 182.84z"/>
    <path id="path41" fill="#fff" d="m1251.4 1362c0 44.25-32.953 80.109-73.57 80.109-40.641 0-73.594-35.859-73.594-80.109s32.953-80.109 73.594-80.109c40.617 0 73.57 35.859 73.57 80.109z"/>
    <path id="path43" d="m2042.7 1434.8c0 100.99-75.164 182.84-167.91 182.84-92.719 0-167.91-81.844-167.91-182.84 0-100.97 75.188-182.81 167.91-182.81 92.742 0 167.91 81.844 167.91 182.81z"/>
    <path id="path45" fill="#fff" d="m2006.2 1362c0 44.25-32.93 80.109-73.57 80.109-40.617 0-73.57-35.859-73.57-80.109s32.953-80.109 73.57-80.109c40.641 0 73.57 35.859 73.57 80.109z"/>
    <path id="path47" fill="#333" d="m1192.5 879.16c-5.461 0.0937-10.898 0.28125-16.406 0.75-14.719 1.1953-29.742 3.9375-45 7.6875-173.14 42.52-310.6 235.8-329.82 454.1h682.99c4.8516-43.476 6.5391-136.05-8.0156-205.83-26.391-109.29-88.383-193.12-171.61-231.8-36.938-17.18-73.898-25.5-112.1-24.914z"/>
    <path id="path49" d="m1837.1 879.16c5.3906 0.0937 10.734 0.28125 16.172 0.75 14.508 1.1953 29.344 3.9375 44.414 7.6875 170.88 42.516 306.52 235.83 325.5 454.1h-673.97c-4.7813-43.476-6.4688-136.05 7.8984-205.83 26.062-109.29 87.211-193.12 169.34-231.8 36.469-17.18 72.938-25.5 110.65-24.914z"/>
    <path id="path51" stroke-linejoin="round" d="m873.09 775.29 1143.5-137.58 56.1 398.79-1143.5 137.6zm0 0" stroke="#ffeea8" stroke-linecap="round" stroke-width="23.438" fill="#fff5d4"/>
    <path id="path53" stroke-linejoin="round" d="m1401.4 501.63 633.63 106.2 167.34 132.07 117.66 134.32 65.695 106.1c39.07 106.29-0.188 1.3358 39.656 107.3l-1093.4-171.71zm0 0" stroke="#ffeea8" stroke-linecap="round" stroke-width="23.438" fill="#fff5d4"/>
    <path id="path55" stroke-linejoin="round" d="m610.31 927.26 834.42-484.59 467.11 182.11-1446.6 859.59c2.5781-52.148-0.0415 0.1176 0.89058-50.766l28.5-175.92 49.922-183.84zm0 0" stroke="#ffeea8" stroke-linecap="round" stroke-width="23.437" fill="#fff5d4"/>
    <path id="path57" stroke-linejoin="round" d="m695.27 799.5 156.23-158.67 163.1-100.15 149.32-63.961 168.28-36.422 169.99 1.4531 161.39 15.234 209.6 68.602c52.406 20.391-0.4454 0.32773 52.805 20.813l101.51 55.852-295.69 63.985-333.09 72.844-166.57 36.422-499.64 109.27-118.36 29.555c81.445-113.11 0.67961 4.4766 81.117-114.82zm0 0" stroke="#ffeea8" stroke-linecap="round" stroke-width="23.438" fill="#fff5d4"/>
    <path id="path61" stroke-linejoin="round" d="m2313.8 2673.9 264.38-103.19 91.289 99.28-302.72 119.18zm0 0" stroke="#ffeea8" stroke-linecap="round" stroke-width="50.391" fill="#fff5d4"/>
    <path id="path63" stroke-linejoin="round" d="m2520.1 2495.7 133.55 310.71-115.27 52.945-141.54-312.3zm0 0" stroke="#ffeea8" stroke-linecap="round" stroke-width="50.391" fill="#fff5d4"/>
    <path id="path65" fill="#fff5d4" d="m2313.8 2673.9 264.38-103.2 91.289 99.281-302.72 119.18z"/>
    <path id="path67" fill="#fff5d4" d="m2520.1 2495.7 133.55 310.71-115.27 52.945-141.54-312.3z"/>
    <path id="path69" stroke="#d40707" stroke-width="35.156" fill="none" d="m2498.5 1147.6c174.38 757.38-4.3594 1022.6 13.125 1513.5"/>
    <path id="path71" fill-opacity=".96863" fill="#f8f8f8" d="m2520.7 1376.2h51.844c10.641 0 19.266 8.625 19.266 19.266v42.797c0 10.641-8.625 19.266-19.266 19.266h-51.844c-10.641 0-19.266-8.625-19.266-19.266v-42.797c0-10.641 8.625-19.266 19.266-19.266z"/>
    <path id="path73" fill="#999" d="m2534.6 221.39h36.141v81.328h-36.141z"/>
    <path id="path75" stroke="#fff3b3" stroke-width="22.266" fill="#fff5d4" d="m2553 2620.1 30.094 72.703-93.68 25.781-29.367-74.484z"/>
    <path id="path77" fill-opacity=".96863" fill="#f8f8f8" d="m2501.4 1375h90.375v45.164h-90.375z"/>
  </g>
  <metadata>
    <rdf:RDF>
      <cc:Work>
        <dc:format>image/svg+xml</dc:format>
        <dc:type rdf:resource="http://purl.org/dc/dcmitype/StillImage"/>
        <cc:license rdf:resource="http://creativecommons.org/licenses/publicdomain/"/>
        <dc:publisher>
          <cc:Agent rdf:about="http://openclipart.org/">
            <dc:title>Openclipart</dc:title>
          </cc:Agent>
        </dc:publisher>
        <dc:title>patient penguin</dc:title>
        <dc:date>2013-05-23T02:05:53</dc:date>
        <dc:description>A penguin in an outfit reminds us of tux from Linux fame.</dc:description>
        <dc:source>https://openclipart.org/detail/178496/patient-by-bartm-178496</dc:source>
        <dc:creator>
          <cc:Agent>
            <dc:title>BartM</dc:title>
          </cc:Agent>
        </dc:creator>
        <dc:subject>
          <rdf:Bag>
            <rdf:li>animal</rdf:li>
            <rdf:li>color</rdf:li>
            <rdf:li>linux</rdf:li>
            <rdf:li>patient</rdf:li>
            <rdf:li>penguin</rdf:li>
            <rdf:li>pet</rdf:li>
            <rdf:li>tux</rdf:li>
          </rdf:Bag>
        </dc:subject>
      </cc:Work>
      <cc:License rdf:about="http://creativecommons.org/licenses/publicdomain/">
        <cc:permits rdf:resource="http://creativecommons.org/ns#Reproduction"/>
        <cc:permits rdf:resource="http://creativecommons.org/ns#Distribution"/>
        <cc:permits rdf:resource="http://creativecommons.org/ns#DerivativeWorks"/>
      </cc:License>
    </rdf:RDF>
  </metadata>
</svg>