<?xml version="1.0" encoding="UTF-8"?>
<svg xmlns:rdf="http://www.w3.org/1999/02/22-rdf-syntax-ns#" xmlns="http://www.w3.org/2000/svg" xmlns:cc="http://creativecommons.org/ns#" xmlns:dc="http://purl.org/dc/elements/1.1/" xmlns:svg="http://www.w3.org/2000/svg" xmlns:inkscape="http://www.inkscape.org/namespaces/inkscape" xmlns:sodipodi="http://sodipodi.sourceforge.net/DTD/sodipodi-0.dtd" xmlns:ns1="http://sozi.baierouge.fr" xmlns:xlink="http://www.w3.org/1999/xlink" id="svg2" viewBox="0 0 3000 3000" version="1.1">
  <rect id="rect5" height="3e3" width="3e3" y="0" x="0" fill="#007f00"/>
  <path id="path7" fill="#fff" d="m1520.9 2453.2c-502.69 0-910.31 244.27-915.91 546.77h1832.2c-5.5781-302.51-413.58-546.77-916.24-546.77z"/>
  <path id="path9" d="m1435.5 429.19c-191.91 3.1172-378.8 60.586-526.97 163.34-211.9 146.93-352.12 372.73-411.26 663.21-2.7188 13.359-6.1875 31.734-8.0625 40.641-1.875 8.9062-5.7188 31.594-8.0625 50.531-2.3438 18.961-6.3516 50.273-9.1406 69.211-6.5625 44.484-6.6094 206.84 0 247.2 20.203 123.49 42.117 213.66 88.617 364.76 14.133 45.914 17.414 56.93 24.891 84.961 2.0859 7.8047 9.6562 35.156 16.5 60.797 44.016 164.95 47.859 278.65 13.898 386.34-24.867 78.844-64.172 139.27-141.73 216.42-55.57 55.453-118.34 139.12-159.28 223.41h374.25c9.7734-22.594 17.602-46.219 26.367-63.727 56.18-112.08 113.13-190.88 193.73-268.08 106.08-101.62 225.54-162.59 368.04-188.23 39.141-7.0547 161.62-8.2969 200.32-1.8281 210.96 35.226 391.27 147.75 535.41 333.98 42.516 54.938 80.789 119.58 115.34 187.88h787.73c-26.555-57.562-71.719-129.66-126.23-207.28-29.93-42.633-69.656-106.95-91.289-132.56-68.719-81.445-126.59-120.8-168.21-175.9-86.508-79.945-76.219-96.539-74.227-208.99 36-179.16 46.289-513.47 36-782.72 3.7969-78.609-0.4922-119.48-4.5-161.02-14.227-146.77-42.07-234.87-99.609-349.73-45.586-90.961-102.96-169.41-178.36-244.62-84.328-84.141-166.08-142.57-275.74-196.66-133.62-65.906-260.79-99.375-416.02-109.5-27.539-1.7812-54.984-2.2734-82.406-1.8281z"/>
  <path id="path11" d="m1813.5 893.53c14.133 1.2188 28.195 3.9609 42.844 7.7109 148.59 37.992 275.55 201.91 310.92 401.37 10.383 58.641 11.273 147.89 1.8281 200.67-23.976 133.95-93.328 232.1-190.05 269.53-39.609 15.328-98.062 19.476-140.27 9.8906-100.69-22.875-200.65-111.8-261.47-232.92-29.578-58.875-58.805-155.11-58.594-192.61-4.4063-27.047-4.8984-30.07-7.3359-69.211-3.7266-13.898 1.8984-87.75 13.547-138.07 25.453-109.66 85.148-193.43 165.16-232.17 40.547-19.641 81.047-27.773 123.42-24.188z"/>
  <path id="path13" fill="#fff" d="m1179.2 893.53c42.375-3.5859 82.875 4.5469 123.42 24.188 79.922 38.672 139.45 122.51 164.79 231.8 17.203 85.758 11.25 207.26 4.4063 227.79-9.1875 69.914-48.984 170.2-93.398 235.48-60.562 89.039-145.59 152.84-226.66 169.92-72.328 15.258-140.2 0.3281-198.49-43.57-87.75-66.117-136.2-184.27-136.24-331.43-0.0234-238.97 139.5-460.57 318.98-506.46 14.648-3.75 29.086-6.4922 43.195-7.7109z"/>
  <path id="path15" fill="#333" d="m1521.2 563.23s-51.422 1268.6-19.031 1801.8c178.76 29.836 260.58 70.336 438.7 215.7 93.234 76.055 266.2 272.65 332.91 419.32h502.43c-46.852-72.281-139.55-212.02-161.86-238.41-28.476-33.727-67.008-78.984-85.336-100.71-58.219-69-145.27-167.18-180.54-213.87-37.336-36.891-33.586-62.859-32.226-112.43 3.3515-132.66 16.312-651.63 26.742-868.29 3.211-66.609 3.3985-93.703 0-128.91-12.047-124.36-35.836-210.28-84.609-307.62-38.602-77.086-86.977-143.53-150.87-207.28-71.461-71.297-140.72-120.8-233.65-166.62-113.2-55.828-352.66-92.648-352.66-92.648z"/>
  <path id="path17" fill="#fff" d="m1878.5 1782.3c-81.539-17.203-167.11-81.305-228.02-170.86-44.672-65.648-84.609-166.41-93.844-236.72-6.8907-20.648-12.984-142.92 4.289-229.17 25.5-109.92 85.617-194.41 165.98-233.32 54.375-26.297 108.38-31.664 167.34-16.57 416.88 90.492 431.16 973.97-15.75 886.64z"/>
  <path id="path19" d="m1290.7 1569.8c0 100.97-75.188 182.81-167.91 182.81-92.742 0-167.91-81.844-167.91-182.81 0-100.99 75.164-182.84 167.91-182.84 92.719 0 167.91 81.844 167.91 182.84z"/>
  <path id="path21" fill="#fff" d="m1251.4 1498.2c0 44.25-32.953 80.109-73.57 80.109-40.641 0-73.594-35.859-73.594-80.109s32.953-80.109 73.594-80.109c40.617 0 73.57 35.859 73.57 80.109z"/>
  <path id="path23" d="m2042.7 1571c0 100.99-75.164 182.84-167.91 182.84-92.719 0-167.91-81.844-167.91-182.84 0-100.97 75.188-182.81 167.91-182.81 92.742 0 167.91 81.844 167.91 182.81z"/>
  <path id="path25" fill="#fff" d="m2006.2 1498.2c0 44.25-32.93 80.109-73.57 80.109-40.617 0-73.57-35.859-73.57-80.109s32.953-80.109 73.57-80.109c40.641 0 73.57 35.859 73.57 80.109z"/>
  <path id="path31" fill="#333" d="m773.04 1386.5c-4.9688-21.469 6.7031-250.48 35.602-335.02 40.57-107.37 115.48-185.41 206.84-215.55 61.805-20.367 181.57-24.305 243.4-2.6719 189.35 66.164 253.73 309.87 225.14 550.73-304.17-40.992-479.11 35.906-710.98 2.5078z"/>
  <path id="path33" d="m2239.4 1386.5c4.9688-21.469-6.7031-250.48-35.602-335.02-40.547-107.37-115.48-185.41-206.84-215.55-61.805-20.367-181.55-24.305-243.4-2.6719-189.33 66.164-253.73 309.87-225.14 550.73 304.17-40.992 479.11 35.906 710.98 2.5078z"/>
  <path id="path35" fill="#f8f8f8" d="m1443.7 411.12c-220.8 3.11-435.8 60.58-606.32 163.33-243.8 146.93-405.15 372.73-473.18 663.25-3.1406 13.359-7.1016 31.711-9.2578 40.641-2.1797 8.9063-31.242 50.672-9.2812 50.531 0 0 41.672 1.9453 234.05 0.6797 48.094-0.3281 118.34-311.48 148.38-364.59 30.07-53.109 28.992 233.13 79.031 162.59 25.008-35.297 48.141-197.06 87.539-248.16 39.398-51.094 99.609 216.33 153.63 189.98 54-26.344 98.461-305.77 168.45-289.38 70.008 16.383 39.07 233.7 141.09 233.95 85.242 0.2344 269.62-224.41 332.55-248.09 62.906-23.695 103.76 180.68 154.97 207.63 51.188 26.953 102.56-173.23 149.25-109.2 46.711 64.031 97.758 188.98 130.22 224.58 32.461 35.602 114.12-111.87 140.7-112.59 26.578-0.72657 83.93 348.59 112.99 374.79 58.078 52.383 48.117-17.602 130.01-20.18 192.26-6.0469 145.66-17.391 145.66-17.391-12.281-159.26-48.375-234.87-114.59-349.73-52.453-90.961-118.45-169.41-205.2-244.62-97.031-84.141-191.11-142.57-317.27-196.66-153.7-65.906-300.05-99.375-478.64-109.5-31.688-1.8047-63.258-2.2734-94.805-1.8281z"/>
  <path id="path43" fill="#ff0" d="m1625.2 259.27-13.195 47.25-88.992 30.75 78.375 51.633 1.4766 94.125 73.594-58.242 90.094 27.469-32.953-88.242 54.188-76.898-94.102 4.0078-35.906-47.602c-11.156 5.2969-22.312 10.453-32.578 15.75z"/>
  <path id="path45" fill="#ff0" d="m1978.3 136.95-9.1406 34.055-88.992 30.398 78.352 52.008 1.4765 94.125 73.617-58.594 89.719 27.82-32.602-88.242 53.836-76.922-93.75 4.0312-21.984-28.922c-17.062 3.375-34.312 6.6094-50.531 10.242z"/>
  <path id="path47" fill="#ff0" d="m2721 249.37-28.57 1.1016-56.766-75.07-24.891 90.445-88.992 30.773 78.375 51.633 1.4531 94.102 18.305-14.625c26.18-62.344 58.031-122.91 101.09-178.36z"/>
  <path id="path49" fill="#ff0" d="m2568.6 573.47-47.977 2.2031-56.391-75.07-25.289 90.445-88.969 30.773 78.352 52.008 1.4766 93.75 73.594-58.242 23.812 7.3359c13.195-46.547 26.555-94.336 41.391-143.2z"/>
  <path id="path51" fill="#ff0" d="m2366.1 912.96-17.93-47.25 53.812-76.898-93.75 3.6562-56.391-75.07-25.266 90.82-88.992 30.398 71.789 47.602c50.976 12.305 103.12 21.75 156.73 26.742z"/>
  <path id="path53" fill="#00007f" d="m2595.3 78.352-48.3 68.858l32.953 88.242-90.094-27.82-73.594 58.594-1.4765-94.125-78.352-52.008 88.969-30.375 2.2031-7.3359c-152.41 7.0078-286.78 22.078-398.81 44.32l21.984 28.922 93.75-4.0312-53.836 76.922 32.602 88.242-89.719-27.82-73.617 58.594-1.4765-94.125-78.352-52.008 88.992-30.398 9.1406-34.055c-134.16 30.141-239.6 68.203-320.44 106.57l35.906 47.602 94.102-4.0078-54.188 76.898 32.953 88.242-90.094-27.469-73.594 58.242-1.4766-94.125-78.375-51.633 88.992-30.75 13.195-47.25c-153.47 79.078-207.66 154.17-207.66 154.17s337.97 363.38 791.77 472.78l-71.789-47.602 88.992-30.398 25.266-90.82 56.391 75.07 93.75-3.6562-53.812 76.898 17.93 47.25c29.719 2.7422 59.719 5.0391 90.094 5.1094 28.992-58.195 50.203-127.9 71.039-201.4l-23.812-7.3359-73.594 58.242-1.4766-93.75-78.352-52.008 88.969-30.773 25.289-90.445 56.391 75.07 47.977-2.2031c14.789-48.75 31.055-97.617 51.258-145.73l-18.305 14.625-1.4531-94.102-78.375-51.633 88.992-30.773 24.891-90.445 56.766 75.07 28.57-1.1016c47.156-60.727 106.12-115.69 184.2-160.03-111.77-8.25-213.26-10.758-309.82-10.992z"/>
  <path id="path55" fill="#ff0" d="m2427.6 82.383-2.2031 7.3359-88.969 30.375 78.352 52.008 1.4765 94.125 73.594-58.594 90.094 27.82l-33-88.24 48.3-68.858c-32.344-0.07031-66.352-1.0781-97.031-0.35156-25.641 0.58594-46.242 3.2578-70.688 4.3828z"/>
  <path id="path57" fill="#ff0" d="m1996.9 673.52-89.836-27.516-73.617 58.406-1.5938-93.961-78.305-51.938 88.875-30.562 25.219-90.516 56.508 75.07 93.891-3.9844-53.93 76.945z"/>
  <path id="path59" fill="#ff0" d="m2268 691.59-89.859-27.516-73.617 58.43-1.5937-93.961-78.305-51.961 88.875-30.562 25.219-90.516 56.531 75.07 93.867-3.9844-53.93 76.945z"/>
  <path id="path61" fill="#ff0" d="m2412.6 461.18-89.836-27.516-73.617 58.406-1.5938-93.961-78.305-51.961 88.875-30.539 25.219-90.539 56.508 75.094 93.891-3.9844-53.93 76.945z"/>
  <path id="path27" d="m637.99 1780c768.94 254.22 1302.5 171.1 1748.4-37.747l-61.242 1240.5-1556.1-7.4536z" stroke="#f8f8f8" stroke-linecap="round" stroke-width="34.597" fill="#f8f8f8"/>
  <path id="path29" stroke="#f8f8f8" stroke-width="25.784" fill="#f8f8f8" d="m775.31 2986.5c-37.641-19.312 7.1953-81.609-2.9062-117.28-10.078-35.672-47.531-61.055-57.609-96.703-10.102-35.672 17.32-88.594 7.2188-124.24-10.078-35.672-57.656-54.094-67.758-89.766-10.078-35.672 25.734-80.203 15.656-115.88-10.078-35.648-66.094-62.461-76.172-98.133-10.102-35.648 19.992-79.078 9.9141-114.75-10.102-35.672-60.352-63.562-70.453-99.234-10.078-35.672 19.992-79.102 9.9141-114.77-10.078-35.648-60.352-63.562-70.43-99.234-10.102-35.672 24.398-84.938 14.297-120.61-10.078-35.672-64.734-57.726-74.836-93.375-10.078-35.672 25.734-80.203 15.656-115.88-10.078-35.672-66.094-62.461-76.172-98.133-10.102-35.672 37.219-82.406 27.117-118.08-10.078-35.672-111.05-64.805-87.656-95.93 116.11-154.43 279.12-59.273 279.12-59.273 94.336 632.02 309.77 1801.9 205.1 1771.3z"/>
  <path id="path37" d="m1408.3 501.77c-196.3 2.77-387.6 53.43-539.12 144.02-212.51 127.05-354.56 344.23-417.02 593.21-23.555 12.019-47.086 30.92-68.695 59.422-20.789 27.432 69.164 52.842 78.141 84.274 8.9531 31.454-33.398 72.859-24.422 104.31 8.9766 31.454 59.062 55.097 68.039 86.552 8.9766 31.431-22.969 70.58-13.992 102.03 8.9531 31.454 57.445 50.89 66.398 82.344 8.9766 31.454-21.656 75.114-12.703 106.57 8.9766 31.431 53.555 56.051 62.508 87.505 8.9766 31.454-17.742 69.627-8.7891 101.06 8.9766 31.454 53.883 56.074 62.836 87.528 8.9766 31.431-17.766 69.604-8.7891 101.06 8.9766 31.454 58.758 55.097 67.711 86.552 8.9766 31.454-22.969 70.906-13.992 102.36 8.9766 31.454 51.258 47.658 60.234 79.112 8.9531 31.454-15.492 78.02-6.5156 109.47 8.9531 31.454 42.469 53.796 51.422 85.25 8.9766 31.454-31.195 86.296 2.2969 103.34 9.7031 2.8129 16.219-6.0677 20.18-24.55 0 0-19.688 94.782-58.336 198.65 92.391 5.2773 694.78 0.9067 694.78 0.9067v-1015c-222.66-0.9299-549.21 3.0919-835.99-92.108-23.555-145.58-82.758-471.63-102.23-596.61 42.492-19.9 96.773-298.8 239.93-451.38 36.961-39.382 7.4297 129.1 51.914 66.861 22.242-31.106 60.844-97.362 95.883-142.42 35.016-45.054 61.594 177.38 109.62 154.16 48.024-23.248 114.63-256.45 176.86-241.99 62.227 14.437 97.898 129.91 152.46 210.81 34.242 0.0929 59.438-44.799 111.56-91.015v-281.6c-20.742-0.74393-41.414-0.92991-62.18-0.65094zm0 0" stroke="#ebebeb" stroke-linecap="round" stroke-width="31.126" fill="#ebebeb"/>
  <path id="path41" stroke="#f8f8f8" stroke-width="25.621" fill="#f8f8f8" d="m2341.7 2986.3c36.633-20.61-13.102-79.194-5.4843-114.42 7.6406-35.228 43.617-61.717 51.258-96.945 7.6172-35.228-23.836-85.484-16.219-120.71 7.6172-35.228 54.352-55.426 61.992-90.654 7.6172-35.228-31.758-76.929-24.117-112.16 7.6172-35.228 62.25-63.982 69.891-99.21 7.6171-35.228-25.875-76.128-18.258-111.36 7.6407-35.205 56.391-64.782 64.031-100.01 7.6172-35.228-25.875-76.106-18.258-111.33 7.6406-35.228 56.391-64.805 64.031-100.03 7.6172-35.228-30.75-81.619-23.109-116.85 7.6171-35.228 61.242-59.292 68.883-94.52 7.6172-35.228-31.758-76.929-24.141-112.16 7.6407-35.228 62.274-63.982 69.891-99.21 7.6406-35.228-43.5-78.53-35.859-113.76 7.6172-35.228 107.48-68.397 81.633-97.608-128.32-144.98-325.83 25.437-325.83 25.437-42.375 665.16-143.84 1700.3-40.336 1665.5z"/>
  <path id="path39" fill="#ec0" d="m1427.1 1760.5-13.922 14.812c-27.703 29.344-87.352 49.359-179.11 59.906-100.76 11.602-228.89 5.3204-290.3-14.18-30.352-9.6329-38.578-7.9922-45.844 9.4921-22.898 55.219 24.984 159.73 137.55 300.3 71.391 89.156 177.52 196.34 243.94 246.35 25.852 19.477 57.375 34.852 86.766 42.305 23.906 6.0703 165.52 4.875 198.96-1.6406 11.156-2.1797 31.922-6.1172 46.102-8.8829 77.086-14.883 142.05-52.219 255.87-146.79 102.8-85.43 228.87-226.08 262.55-292.95 24.633-48.891 34.805-122.58 20.016-145.15-8.4844-12.938-12.047-13.148-44.578-2.789-31.547 10.031-139.05 20.25-211.9 20.25-30.164 0-78.844-2.8125-108.3-6.3282-85.758-10.195-135.09-27.773-164.02-58.5l-15.188-16.219zm36.867 32.414c22.336 0 34.852 29.086 26.203 61.172-14.812 55.031-50.695 81.656-72.562 53.836-23.977-30.469 10.078-115.01 46.359-115.01zm84.844 0c24.914 0 54.844 47.391 54.844 86.766 0 33.938-25.781 49.57-50.156 30.398-20.086-15.797-37.758-62.555-33.047-87.656 3.1875-17.062 15.188-29.508 28.359-29.508z"/>
  <metadata>
    <rdf:RDF>
      <cc:Work>
        <dc:format>image/svg+xml</dc:format>
        <dc:type rdf:resource="http://purl.org/dc/dcmitype/StillImage"/>
        <cc:license rdf:resource="http://creativecommons.org/licenses/publicdomain/"/>
        <dc:publisher>
          <cc:Agent rdf:about="http://openclipart.org/">
            <dc:title>Openclipart</dc:title>
          </cc:Agent>
        </dc:publisher>
        <dc:title>Wizard Penguin</dc:title>
        <dc:date>2013-05-23T02:12:17</dc:date>
        <dc:description>Penguin with beard in a wizard hat with stars</dc:description>
        <dc:source>https://openclipart.org/detail/178519/wizard-by-bartm-178519</dc:source>
        <dc:creator>
          <cc:Agent>
            <dc:title>BartM</dc:title>
          </cc:Agent>
        </dc:creator>
        <dc:subject>
          <rdf:Bag>
            <rdf:li>fantasy</rdf:li>
            <rdf:li>humor</rdf:li>
            <rdf:li>magic</rdf:li>
            <rdf:li>medieval</rdf:li>
            <rdf:li>penguin</rdf:li>
            <rdf:li>wizard</rdf:li>
          </rdf:Bag>
        </dc:subject>
      </cc:Work>
      <cc:License rdf:about="http://creativecommons.org/licenses/publicdomain/">
        <cc:permits rdf:resource="http://creativecommons.org/ns#Reproduction"/>
        <cc:permits rdf:resource="http://creativecommons.org/ns#Distribution"/>
        <cc:permits rdf:resource="http://creativecommons.org/ns#DerivativeWorks"/>
      </cc:License>
    </rdf:RDF>
  </metadata>
</svg>